Weather_Condition,Road_Surface_Condition,Safety_Equipment_Restraint,Ejection,Contributing_Circumstances_Vehicle,Contributing_Circumstances_Person,Condition_At_Time_Of_Crash,Injury_Status,Driver_Distracted_By,Damage_Areas
1 = Clear,1 = Dry,1 = None used,1 = Not Ejected,99 = Unknown,1 = No Improper Action,0 = No Apparent Influence,1 = No Injury,0 = Not Distracted,1 = Front
2 = Cloudy,2 = Wet,2 = Lap Belt,0 = Not Applicable,97 = Other,99 = Unknown,1 = llness,2 = Possible Injury,1 = Talking on Hands Free Device,2 = Right Front
"3 = Sleet, Hail, (freezing rain/drizzle)",3 = Snow,3 = Shoulder and Lap belt,99 = Unknown,9 = Brakes,97 = Other,2 = Physical Impairment,3 = Non-Incapacitating Injury,2 = Talking on Hand Held Device,3 = Right Side
4 = Rain,4 = Slush,4 = Child Restraint System,"2 = Ejected, Partially",10 = Steering,13 = Failed to Keep in Proper Lane,3 = Fell Asleep/Fatigued,4 = Incapacitating Injury,3 = Passengers,4 = Right Rear
5 = Snow,5 = Ice/Frost,5 = Helmet Used,"3 = Ejected, Totally",12 = Tires,4 = Followed Too Closely,4 = Alcohol,5 = Fatal Injury,"4 = Other Activity, Electronic Device",5 = Rear
6 = Severe Crosswinds,"6 = Water (standing, moving)",6 = Air Bag Deployed,4 = Unknown Degree,"14 = Lights (head, signal, tail)",5 = Ran Stop Sign,5 = Drugs,U = Unknown/Not Reported,5 = Manually Operating an Electronic Device,6 = Left Rear
"7 = Blowing Sand, Soil, Dirt","7 = Sand, Dirt, Gravel",7 = Air Bag Deployed/ Shoulder-Lap Belt,,15 = Windows/Windshield,7 = Made Improper Turn,6 = Medications,,"6 = Other Inside The Vehicle (eating, drinking, etc)",7 = Left Side
"8 = Fog, Smog, Smoke","8 = Mud, Dirt, Gravel",97 = Other,,16 = Mirrors,8 = Drove/Rode In Opposing Traffic Lane,97 = Other,,7 = Outside the Vehicle (includes unspecified distractions),8 = Left Front
9 = Blowing snow,9 = Oil,99 = Unknown,,18 = Truck Coupling/Trailer/Hitch/Safety Chains,2 = Speed Too Fast for Conditions,99 = Unknown Condition,,99 = Unknown Distractions,
99 = Unknown,99 = Unknown,,,11 = Suspension,3 = Exceeded Lawful Speed,51 = Unknown Condition,,,
97 = Other,97 = Other,,,17 = Wipers,6 = Disregarded Traffic Signal,,,,
,,,,13 = Wheels,9 = Knowingly Operated with Faulty/Missing Equipment,,,,
,,,,,10 = Required Motorcycle Safety Equipment,,,,
,,,,,11 = Passed in No Passing Zone,,,,
,,,,,12 = Unsafe Lane Change,,,,
,,,,,14 = Disregarded Pavement Markings,,,,
,,,,,15 = Other Unsafe Passing,,,,
,,,,,17 = Did not Use Crosswalk,,,,
,,,,,18 = Walked on Wrong Side of Road,,,,
,,,,,20 = Failed to Yield Right-of-way,,,,
