single_checkboxes,driver_info,passenger_info,citation_info,witness_info,ejection_info,damage_info
Hit_Run_Check,Driver_State,Pass_Unit_No,Citation_Code,Witness_Details,Ext_Ejec_Unit_No,Unit_No_1_Damage_Area_1
Towed_Away_Circle,Driver_Class,Pass_Seat_Pos,Citation_Unit_No,Witness_DOB,Ext_Ejec_Seat_Pos,Unit_No_1_Damage_Area_2
Intersect_At_Check,Driver_End,Pass_Seat_SD,,,Ext_Ejec_Ejection,Unit_No_1_Damage_Area_3
Driver_License_No_DL_Check,Driver_License_No,Pass_Seat_IS,,,Ext_Ejec_Extrication,Unit_No_1_Damage_Area_4
Driver_License_No_Not_Valid_Check,Driver_License_No_DL_Check,Pass_Name_Details,,,,Unit_No_1_Damage_Area_5
Owner_Same_As_Driver_Check,Driver_License_No_Not_Valid_Check,Pass_Telephone,,,,Unit_No_1_Damage_Area_6
Person_Extricated_Check,Person_Driver_Check,Pass_DOB,,,,Unit_No_1_Damage_Area_7
Person_Ejected_Check,Person_Pedestrian_Check,Pass_Sex,,,,Unit_No_1_Damage_Area_8
Person_Driver_Check,Person_Pedacycle_Check,Pass_Transport_EMS,,,,Unit_No_2_Damage_Area_1
Person_Pedestrian_Check,Person_Driverless_Check,Pass_Ejected,,,,Unit_No_2_Damage_Area_2
Person_Pedacycle_Check,Person_Name,Pass_Extricated,,,,Unit_No_2_Damage_Area_3
Person_Driverless_Check,Person_Ejected_Check,,,,,Unit_No_2_Damage_Area_4
Removed_To_Disable_Check,Person_Extricated_Check,,,,,Unit_No_2_Damage_Area_5
Removed_To_Not_Disable_Check,Person_Name_Suffix,,,,,Unit_No_2_Damage_Area_6
Photos_Taken_Y_Check,Person_Telephone_Number,,,,,Unit_No_2_Damage_Area_7
Photos_Taken_N_Check,Person_Address_Details,,,,,Unit_No_2_Damage_Area_8
Inside_Check,Person_Restrictions,,,,,Unit_No_3_Damage_Area_1
Outside_Check,Unit_No,,,,,Unit_No_3_Damage_Area_2
Pass_Transport_EMS,Person_DOB,,,,,Unit_No_3_Damage_Area_3
Pass_Ejected,Owner_Same_As_Driver_Check,,,,,Unit_No_3_Damage_Area_4
Pass_Extricated,Owner_Details,,,,,Unit_No_3_Damage_Area_5
Cond_Diver_U1_0,Vehicle_Color,,,,,Unit_No_3_Damage_Area_6
Cond_Diver_U1_1,Vehicle_Year,,,,,Unit_No_3_Damage_Area_7
Cond_Diver_U1_2,Vehicle_Make,,,,,Unit_No_3_Damage_Area_8
Cond_Diver_U1_3,Vehicle_Model,,,,,
Cond_Diver_U1_4,Vehicle_Body_Style,,,,,
Cond_Diver_U1_5,Vehicle_Plate_Number,,,,,
Cond_Diver_U1_50,Vehicle_State,,,,,
Cond_Diver_U1_51,Vehicle_Plate_No,,,,,
Cond_Diver_U1_6,Trailer_Year,,,,,
Cond_Diver_U1_7,Trailer_State,,,,,
Cond_Diver_U1_8,Trailer_Plate_No,,,,,
Cond_Diver_U1_97,Vehicle_VIN,,,,,
Cond_Diver_U1_99,Safety_Devices,,,,,
Cond_Diver_U1_A,Injury_Severity,,,,,
Cond_Diver_U1_B,Posted_Speed_Limit,,,,,
Cond_Diver_U1_C,Ofc_Estd_Speed,,,,,
Cond_Diver_U1_D,Transported_To_By,,,,,
Cond_Diver_U2_0,Removed_To_Address,,,,,
Cond_Diver_U2_1,Removed_To_Disable_Check,,,,,
Cond_Diver_U2_2,Removed_To_Not_Disable_Check,,,,,
Cond_Diver_U2_3,Removed_By,,,,,
Cond_Diver_U2_4,Removed_By_Orders_Of,,,,,
Cond_Diver_U2_5,Insurance_Company,,,,,
Cond_Diver_U2_50,Vehicle_Telephone_Number,,,,,
Cond_Diver_U2_51,Insurance_Policy_Number,,,,,
Cond_Diver_U2_6,Insurance_Exp_Date,,,,,
Cond_Diver_U2_7,,,,,,
Cond_Diver_U2_8,,,,,,
Cond_Diver_U2_97,,,,,,
Cond_Diver_U2_99,,,,,,
Cond_Diver_U2_A,,,,,,
Cond_Diver_U2_B,,,,,,
Cond_Diver_U2_C,,,,,,
Cond_Diver_U2_D,,,,,,
Cond_Diver_U3_0,,,,,,
Cond_Diver_U3_1,,,,,,
Cond_Diver_U3_2,,,,,,
Cond_Diver_U3_3,,,,,,
Cond_Diver_U3_4,,,,,,
Cond_Diver_U3_5,,,,,,
Cond_Diver_U3_6,,,,,,
Cond_Diver_U3_97,,,,,,
Cond_Diver_U3_99,,,,,,
Cond_Diver_U3_A,,,,,,
Cond_Diver_U3_B,,,,,,
Cond_Diver_U3_C,,,,,,
Cond_Diver_U3_D,,,,,,
Control_By_AV_Check,,,,,,
Control_By_Man_Check,,,,,,
Control_By_UNK_Check,,,,,,
Distract_Driver_Behaviour_U1_0,,,,,,
Distract_Driver_Behaviour_U1_1,,,,,,
Distract_Driver_Behaviour_U1_2,,,,,,
Distract_Driver_Behaviour_U1_3,,,,,,
Distract_Driver_Behaviour_U1_4,,,,,,
Distract_Driver_Behaviour_U1_5,,,,,,
Distract_Driver_Behaviour_U1_50,,,,,,
Distract_Driver_Behaviour_U1_51,,,,,,
Distract_Driver_Behaviour_U1_6,,,,,,
Distract_Driver_Behaviour_U1_7,,,,,,
Distract_Driver_Behaviour_U1_99,,,,,,
Distract_Driver_Behaviour_U2_0,,,,,,
Distract_Driver_Behaviour_U2_1,,,,,,
Distract_Driver_Behaviour_U2_2,,,,,,
Distract_Driver_Behaviour_U2_3,,,,,,
Distract_Driver_Behaviour_U2_4,,,,,,
Distract_Driver_Behaviour_U2_5,,,,,,
Distract_Driver_Behaviour_U2_50,,,,,,
Distract_Driver_Behaviour_U2_51,,,,,,
Distract_Driver_Behaviour_U2_6,,,,,,
Distract_Driver_Behaviour_U2_7,,,,,,
Distract_Driver_Behaviour_U2_99,,,,,,
Distract_Driver_Behaviour_U3_0,,,,,,
Distract_Driver_Behaviour_U3_1,,,,,,
Distract_Driver_Behaviour_U3_2,,,,,,
Distract_Driver_Behaviour_U3_3,,,,,,
Distract_Driver_Behaviour_U3_4,,,,,,
Distract_Driver_Behaviour_U3_5,,,,,,
Distract_Driver_Behaviour_U3_6,,,,,,
Distract_Driver_Behaviour_U3_7,,,,,,
Distract_Driver_Behaviour_U3_99,,,,,,
Motor_Vehicle_U1_10,,,,,,
Motor_Vehicle_U1_11,,,,,,
Motor_Vehicle_U1_12,,,,,,
Motor_Vehicle_U1_13,,,,,,
Motor_Vehicle_U1_14,,,,,,
Motor_Vehicle_U1_15,,,,,,
Motor_Vehicle_U1_16,,,,,,
Motor_Vehicle_U1_17,,,,,,
Motor_Vehicle_U1_18,,,,,,
Motor_Vehicle_U1_50,,,,,,
Motor_Vehicle_U1_51,,,,,,
Motor_Vehicle_U1_9,,,,,,
Motor_Vehicle_U1_97,,,,,,
Motor_Vehicle_U1_99,,,,,,
Motor_Vehicle_U2_10,,,,,,
Motor_Vehicle_U2_11,,,,,,
Motor_Vehicle_U2_12,,,,,,
Motor_Vehicle_U2_13,,,,,,
Motor_Vehicle_U2_14,,,,,,
Motor_Vehicle_U2_15,,,,,,
Motor_Vehicle_U2_16,,,,,,
Motor_Vehicle_U2_17,,,,,,
Motor_Vehicle_U2_18,,,,,,
Motor_Vehicle_U2_50,,,,,,
Motor_Vehicle_U2_51,,,,,,
Motor_Vehicle_U2_9,,,,,,
Motor_Vehicle_U2_97,,,,,,
Motor_Vehicle_U2_99,,,,,,
Motor_Vehicle_U3_10,,,,,,
Motor_Vehicle_U3_11,,,,,,
Motor_Vehicle_U3_12,,,,,,
Motor_Vehicle_U3_13,,,,,,
Motor_Vehicle_U3_14,,,,,,
Motor_Vehicle_U3_15,,,,,,
Motor_Vehicle_U3_16,,,,,,
Motor_Vehicle_U3_17,,,,,,
Motor_Vehicle_U3_18,,,,,,
Motor_Vehicle_U3_9,,,,,,
Motor_Vehicle_U3_97,,,,,,
Motor_Vehicle_U3_99,,,,,,
Road_Surface_Cond_U1_1,,,,,,
Road_Surface_Cond_U1_2,,,,,,
Road_Surface_Cond_U1_3,,,,,,
Road_Surface_Cond_U1_4,,,,,,
Road_Surface_Cond_U1_5,,,,,,
Road_Surface_Cond_U1_6,,,,,,
Road_Surface_Cond_U1_7,,,,,,
Road_Surface_Cond_U1_8,,,,,,
Road_Surface_Cond_U1_9,,,,,,
Road_Surface_Cond_U1_97,,,,,,
Road_Surface_Cond_U1_99,,,,,,
Road_Surface_Cond_U2_1,,,,,,
Road_Surface_Cond_U2_2,,,,,,
Road_Surface_Cond_U2_3,,,,,,
Road_Surface_Cond_U2_4,,,,,,
Road_Surface_Cond_U2_5,,,,,,
Road_Surface_Cond_U2_6,,,,,,
Road_Surface_Cond_U2_7,,,,,,
Road_Surface_Cond_U2_8,,,,,,
Road_Surface_Cond_U2_9,,,,,,
Road_Surface_Cond_U2_97,,,,,,
Road_Surface_Cond_U2_99,,,,,,
Road_Surface_Cond_U3_1,,,,,,
Road_Surface_Cond_U3_2,,,,,,
Road_Surface_Cond_U3_3,,,,,,
Road_Surface_Cond_U3_4,,,,,,
Road_Surface_Cond_U3_5,,,,,,
Road_Surface_Cond_U3_6,,,,,,
Road_Surface_Cond_U3_7,,,,,,
Road_Surface_Cond_U3_8,,,,,,
Road_Surface_Cond_U3_9,,,,,,
Road_Surface_Cond_U3_97,,,,,,
Road_Surface_Cond_U3_99,,,,,,
Violations_Unit_U1_1,,,,,,
Violations_Unit_U1_10,,,,,,
Violations_Unit_U1_11,,,,,,
Violations_Unit_U1_12,,,,,,
Violations_Unit_U1_13,,,,,,
Violations_Unit_U1_14,,,,,,
Violations_Unit_U1_15,,,,,,
Violations_Unit_U1_16,,,,,,
Violations_Unit_U1_17,,,,,,
Violations_Unit_U1_18,,,,,,
Violations_Unit_U1_19,,,,,,
Violations_Unit_U1_2,,,,,,
Violations_Unit_U1_20,,,,,,
Violations_Unit_U1_3,,,,,,
Violations_Unit_U1_4,,,,,,
Violations_Unit_U1_49,,,,,,
Violations_Unit_U1_5,,,,,,
Violations_Unit_U1_50,,,,,,
Violations_Unit_U1_51,,,,,,
Violations_Unit_U1_6,,,,,,
Violations_Unit_U1_7,,,,,,
Violations_Unit_U1_8,,,,,,
Violations_Unit_U1_9,,,,,,
Violations_Unit_U1_97,,,,,,
Violations_Unit_U1_99,,,,,,
Violations_Unit_U2_1,,,,,,
Violations_Unit_U2_10,,,,,,
Violations_Unit_U2_11,,,,,,
Violations_Unit_U2_12,,,,,,
Violations_Unit_U2_13,,,,,,
Violations_Unit_U2_14,,,,,,
Violations_Unit_U2_15,,,,,,
Violations_Unit_U2_16,,,,,,
Violations_Unit_U2_17,,,,,,
Violations_Unit_U2_18,,,,,,
Violations_Unit_U2_19,,,,,,
Violations_Unit_U2_2,,,,,,
Violations_Unit_U2_20,,,,,,
Violations_Unit_U2_3,,,,,,
Violations_Unit_U2_4,,,,,,
Violations_Unit_U2_49,,,,,,
Violations_Unit_U2_5,,,,,,
Violations_Unit_U2_50,,,,,,
Violations_Unit_U2_51,,,,,,
Violations_Unit_U2_6,,,,,,
Violations_Unit_U2_7,,,,,,
Violations_Unit_U2_8,,,,,,
Violations_Unit_U2_9,,,,,,
Violations_Unit_U2_97,,,,,,
Violations_Unit_U2_99,,,,,,
Violations_Unit_U3_1,,,,,,
Violations_Unit_U3_10,,,,,,
Violations_Unit_U3_11,,,,,,
Violations_Unit_U3_12,,,,,,
Violations_Unit_U3_13,,,,,,
Violations_Unit_U3_14,,,,,,
Violations_Unit_U3_15,,,,,,
Violations_Unit_U3_16,,,,,,
Violations_Unit_U3_17,,,,,,
Violations_Unit_U3_18,,,,,,
Violations_Unit_U3_19,,,,,,
Violations_Unit_U3_2,,,,,,
Violations_Unit_U3_20,,,,,,
Violations_Unit_U3_3,,,,,,
Violations_Unit_U3_4,,,,,,
Violations_Unit_U3_5,,,,,,
Violations_Unit_U3_6,,,,,,
Violations_Unit_U3_7,,,,,,
Violations_Unit_U3_8,,,,,,
Violations_Unit_U3_9,,,,,,
Violations_Unit_U3_97,,,,,,
Violations_Unit_U3_99,,,,,,
Weather_Condition_1,,,,,,
Weather_Condition_2,,,,,,
Weather_Condition_3,,,,,,
Weather_Condition_4,,,,,,
Weather_Condition_5,,,,,,
Weather_Condition_50,,,,,,
Weather_Condition_51,,,,,,
Weather_Condition_6,,,,,,
Weather_Condition_7,,,,,,
Weather_Condition_8,,,,,,
Weather_Condition_9,,,,,,
Weather_Condition_97,,,,,,
Weather_Condition_99,,,,,,
Invest_At_Scene_N_Check,,,,,,
Hazmat_Placcard_N_Check,,,,,,
