,filename,label,score,xmin,ymin,xmax,ymax,img_width,img_height
0,6.tif_1,passenger_name,0.9999445677,0.0182443652,0.5723379254,0.3299747109,0.5889037251,2550,3300
1,6.tif_1,driver_license_no,0.9997908473,0.0382721685,0.5145018697,0.2867748141,0.5339123011,2550,3300
2,6.tif_1,passenger_name,0.9997870326,0.0200031903,0.763908565,0.3902640045,0.7796566486,2550,3300
3,6.tif_1,driver_state,0.9997711778,0.2939611673,0.7348071337,0.3446315229,0.752359271,2550,3300
4,6.tif_1,driver_state,0.999636054,0.2791244686,0.51563555,0.3304280043,0.5332617164,2550,3300
5,6.tif_1,passenger_details,0.9995914102,0.3571333587,0.7631882429,0.9721235633,0.7813656926,2550,3300
6,6.tif_1,person_sex,0.999571383,0.8028931022,0.7357881665,0.8462412357,0.7531829476,2550,3300
7,6.tif_1,driver_license_no,0.9995090961,0.0355701111,0.7341302037,0.2969905734,0.7530626059,2550,3300
8,6.tif_1,person_sex,0.9994317889,0.795394361,0.2929532826,0.849203825,0.3112535179,2550,3300
9,6.tif_1,passenger_name,0.99939394,0.0236505624,0.5447511673,0.3753782213,0.5611754656,2550,3300
10,6.tif_1,person_sex,0.9991824031,0.795407176,0.5152861476,0.8460378647,0.5334873199,2550,3300
11,6.tif_1,driver_license_no,0.9990848303,0.4425707161,0.6248254776,0.6102318168,0.6416471004,2550,3300
12,6.tif_1,driver_license_no,0.9990579486,0.0382296443,0.2926259339,0.2845872343,0.3112526536,2550,3300
13,6.tif_1,passenger_details,0.9990430474,0.369922787,0.7911606431,0.9536551833,0.809215486,2550,3300
14,6.tif_1,passenger_name,0.9988198876,0.0168635659,0.3497727513,0.3410893083,0.3656924069,2550,3300
15,6.tif_1,passenger_name,0.9986672401,0.0221435875,0.3215204179,0.3664335608,0.3387615979,2550,3300
16,6.tif_1,driver_name,0.9983583093,0.0353530906,0.4879468381,0.4096205533,0.5037813783,2550,3300
17,6.tif_1,driver_license_no,0.9982000589,0.4384585321,0.1809244007,0.5925629139,0.1974226534,2550,3300
18,6.tif_1,driver_state,0.9979872704,0.277954191,0.2934910953,0.3310947418,0.3112942576,2550,3300
19,6.tif_1,vehicle_year,0.9976171851,0.0294736121,0.1785999686,0.118883647,0.1971304566,2550,3300
20,6.tif_1,direction_west,0.9973479509,0.3490337133,0.1256003827,0.3672008812,0.1398159415,2550,3300
21,6.tif_1,driver_name,0.9971174002,0.0393991359,0.7091556191,0.427982986,0.7240753174,2550,3300
22,6.tif_1,driver_license_no,0.9966615438,0.4383884668,0.4049782455,0.5979511738,0.4208834767,2550,3300
23,6.tif_1,driver_DL_type,0.9956047535,0.3439342976,0.7328516841,0.4124091864,0.7532762289,2550,3300
24,6.tif_1,passenger_details,0.9948779345,0.3708357513,0.3203977048,0.9610705972,0.33895576,2550,3300
25,6.tif_1,passenger_details,0.9948168397,0.3857268989,0.5437938571,0.9619047046,0.5616061091,2550,3300
26,6.tif_1,vehicle_year,0.9942663312,0.0252459366,0.4018903971,0.1199724153,0.4191621542,2550,3300
27,6.tif_1,vehicle_owner_details,0.9929379821,0.0351172835,0.2392796129,0.9307909608,0.2545776367,2550,3300
28,6.tif_1,vehicle_year,0.9918938279,0.0247991774,0.6230921149,0.120561704,0.6402400136,2550,3300
29,6.tif_1,miles,0.9912059903,0.2190151066,0.124574028,0.2729584873,0.1461640894,2550,3300
30,6.tif_1,driver_DL_type,0.9903632998,0.329643935,0.2906912863,0.4003586173,0.3118150532,2550,3300
31,6.tif_1,vehicle_owner_details,0.9903402925,0.0478939749,0.6828362942,0.9619678855,0.6992990971,2550,3300
32,6.tif_1,driver_name,0.9901767373,0.0227345936,0.2646933198,0.3936788738,0.2818409801,2550,3300
33,6.tif_1,driver_business_phone_no,0.9880335331,0.5992514491,0.2932780087,0.7869113684,0.3107449114,2550,3300
34,6.tif_1,direction_north,0.9842909575,0.2767417133,0.1258498877,0.2944981754,0.1402751356,2550,3300
35,6.tif_1,insurance_policy_no,0.9830290079,0.4857217669,0.6529905796,0.9508664012,0.6696289778,2550,3300
36,6.tif_1,driver_phone_no,0.981259644,0.3898145258,0.2918754816,0.5875897408,0.312307477,2550,3300
37,6.tif_1,driver_business_phone_no,0.9803550243,0.5889434218,0.7353782654,0.796921134,0.7540526986,2550,3300
38,6.tif_1,vehicle_make,0.9786915779,0.1168776006,0.1785275936,0.2700223327,0.1982087642,2550,3300
39,6.tif_1,direction_east,0.9779182076,0.3247231543,0.1258133203,0.3434274793,0.1403864622,2550,3300
40,6.tif_1,person_details,0.9768998623,0.4095879793,0.2659551203,0.9468425512,0.2814927995,2550,3300
41,6.tif_1,vehicle_VIN,0.9764119387,0.6786928177,0.6242914796,0.9675491452,0.640160501,2550,3300
42,6.tif_1,driver_DL_type,0.9746304154,0.3297217786,0.5131546259,0.4001172483,0.5337045789,2550,3300
43,6.tif_1,or_from_milepost,0.9720996022,0.8514101505,0.126164481,0.9730914831,0.1463228911,2550,3300
44,6.tif_1,insurance_policy_no,0.9715177417,0.4878648221,0.431987673,0.9525840878,0.449387908,2550,3300
45,6.tif_1,feet,0.9707719088,0.1517975032,0.1267285347,0.2183035165,0.146801725,2550,3300
46,6.tif_1,direction_south,0.9695894718,0.2990625203,0.1256960034,0.3197342157,0.1411727965,2550,3300
47,6.tif_1,insurance_company,0.9690829515,0.0358377509,0.208337456,0.4600075483,0.225005433,2550,3300
48,6.tif_1,vehicle_owner_details,0.9627059698,0.0221974533,0.4611548483,0.8788035512,0.4762525856,2550,3300
49,6.tif_1,driver_date_of_birth,0.9580694437,0.839030087,0.7355571985,0.9700008035,0.7537570596,2550,3300
50,6.tif_1,vehicle_state,0.9501730204,0.5870974064,0.4036252499,0.6768537164,0.4210044444,2550,3300
51,6.tif_1,person_details,0.9488069415,0.4235707521,0.7095653415,0.9634830952,0.7244597077,2550,3300
52,6.tif_1,vehicle_make,0.940297544,0.1191435084,0.4031859934,0.2669826746,0.420227468,2550,3300
53,6.tif_1,vehicle_VIN,0.935733676,0.6750352383,0.1814446747,0.9653403759,0.1970617175,2550,3300
54,6.tif_1,driver_business_phone_no,0.9306926131,0.6054545045,0.515776515,0.7903280258,0.5324866176,2550,3300
55,6.tif_1,driver_phone_no,0.929669857,0.3936508,0.5148031712,0.5835814476,0.5349083543,2550,3300
56,6.tif_1,driver_phone_no,0.9200432897,0.4149352014,0.7343962193,0.6088147759,0.7540106177,2550,3300
57,6.tif_2,narration,0.9999492168,0.0536555499,0.3908905685,0.9730650783,0.5803712606,2550,3300
58,6.tif_2,driver_license_no,0.9994314313,0.034914352,0.306142211,0.2546794713,0.3245534599,2550,3300
59,6.tif_2,person_sex,0.9971242547,0.8089802861,0.307941407,0.8505337238,0.3252278268,2550,3300
60,6.tif_2,driver_state,0.993391633,0.2557868958,0.306216687,0.321207732,0.3256243467,2550,3300
61,6.tif_2,direction_west,0.991512239,0.3489001691,0.1399749517,0.3670689464,0.1534806937,2550,3300
62,6.tif_2,driver_DL_type,0.9914133549,0.3236396015,0.3044837415,0.3881154358,0.3246765733,2550,3300
63,6.tif_2,passenger_details,0.9912753105,0.345066011,0.3350840807,0.9835235476,0.3518377841,2550,3300
64,6.tif_2,driver_business_phone_no,0.9901794195,0.6006637216,0.306576848,0.8096109033,0.3242889643,2550,3300
65,6.tif_2,insurance_policy_no,0.9898610115,0.4522725344,0.2246422321,0.9495926499,0.2405023128,2550,3300
66,6.tif_2,driver_license_no,0.9889363647,0.4406386614,0.1944191903,0.5940291286,0.2111136168,2550,3300
67,6.tif_2,direction_north,0.9842244387,0.2765015066,0.139449656,0.2935028374,0.1540002376,2550,3300
68,6.tif_2,direction_east,0.9838137627,0.325517714,0.1397526711,0.3428945541,0.153450489,2550,3300
69,6.tif_2,or_from_milepost,0.9807795882,0.85286659,0.1404661089,0.9746016264,0.1606878936,2550,3300
70,6.tif_2,vehicle_year,0.9787052274,0.034674298,0.192394942,0.1182962582,0.2120266408,2550,3300
71,6.tif_2,driver_phone_no,0.9736836553,0.3880211413,0.3054182529,0.6023834944,0.3253290355,2550,3300
72,6.tif_2,insurance_company,0.9733380675,0.0521860011,0.221860528,0.503490448,0.2400264889,2550,3300
73,6.tif_2,miles,0.9725309014,0.2290133536,0.1381733268,0.2729608715,0.1614818275,2550,3300
74,6.tif_2,driver_name,0.9622216821,0.0225084368,0.2784804404,0.3959447145,0.2960202098,2550,3300
75,6.tif_2,direction_south,0.96141541,0.300018698,0.1393943727,0.3183961511,0.1535760909,2550,3300
76,6.tif_2,driver_date_of_birth,0.9552740455,0.8390027881,0.3070370257,0.9701234698,0.3267081678,2550,3300
77,6.tif_2,vehicle_owner_details,0.9548648596,0.0322191529,0.2537955642,0.9611824155,0.2683460712,2550,3300
78,6.tif_2,person_details,0.9530131817,0.4245439172,0.2799660563,0.9722961187,0.2947578728,2550,3300
79,6.tif_2,vehicle_VIN,0.9453446269,0.6683160067,0.1939729303,0.964869082,0.2108365446,2550,3300
80,6.tif_2,passenger_name,0.9413086176,0.0272266865,0.3356961012,0.3663541079,0.3519732356,2550,3300
81,6.tif_2,at_street_address,0.9369766712,0.0259513352,0.1394441426,0.1470471323,0.1592496186,2550,3300
82,6.tif_2,vehicle_state,0.9329987764,0.5801987648,0.194250986,0.6726946235,0.2115238458,2550,3300
83,6.tif_2,vehicle_make,0.9134944081,0.1196103245,0.1927451193,0.2725650966,0.2109530121,2550,3300
